1.transform (exercises)
…
b) Expand the following calls to count() to instead use group_by(),
summarize(), and arrange():

1. flights |> count(dest, sort = TRUE)

flights |> 
  group_by(dest) |>
  summarize(n = n()) |>
  arrange(desc(n))

## # A tibble: 105 × 2
##    dest      n
##    <chr> <int>
##  1 ORD   17283
##  2 ATL   17215
##  3 LAX   16174
##  4 BOS   15508
##  5 MCO   14082
##  6 CLT   14064
##  7 SFO   13331
##  8 FLL   12055
##  9 MIA   11728
## 10 DCA    9705
## # ℹ 95 more rows

2. flights |> count(tailnum, wt = distance)

flights |> 
  group_by(tailnum) |> 
  summarize(miles = sum(distance))

## # A tibble: 4,044 × 2
##    tailnum  miles
##    <chr>    <dbl>
##  1 D942DN    3418
##  2 N0EGMQ  250866
##  3 N10156  115966
##  4 N102UW   25722
##  5 N103US   24619
##  6 N104UW   25157
##  7 N10575  150194
##  8 N105UW   23618
##  9 N107US   21677
## 10 N108UW   32070
## # ℹ 4,034 more rows
…
  mutate(
    #extract hours of departure
    dep_time_hh = dep_time %/% 100,
    #extract minutes of departure in 5min interval
    dep_time_mm = round(dep_time %% 100 / 5) * 5,
    #compute departure time using 5min interval
    dep_time2 = if_else(
      dep_time_mm <= 55,
      dep_time_hh * 100 + dep_time_mm, #rounded minutes less than 60
      (dep_time_hh + 1) * 100          #rounded minutes equal to 60
    ),
    .keep = "used"
  )

## # A tibble: 336,776 × 4
##    dep_time dep_time_hh dep_time_mm dep_time2
##       <int>       <dbl>       <dbl>     <dbl>
##  1      517           5          15       515
##  2      533           5          35       535
##  3      542           5          40       540
##  4      544           5          45       545
##  5      554           5          55       555
##  6      554           5          55       555
##  7      555           5          55       555
##  8      557           5          55       555
##  9      557           5          55       555
## 10      558           5          60       600
## # ℹ 336,766 more rows
…
## # A tibble: 1 × 2
##   tailnum dep_delay
##   <chr>       <dbl>
## 1 N384HA       1301

#calculate worst on-time record for each plane
flights |>
  filter(!is.na(dep_delay)) |>     #filter out NA values
  group_by(tailnum) |>             #group by "tailnum"
  summarize(
    dep_delay_rec = max(dep_delay) #calculate maximum delay per group
  ) |>
  arrange(desc(dep_delay_rec))

## # A tibble: 4,037 × 2
##    tailnum dep_delay_rec
##    <chr>           <dbl>
##  1 N384HA           1301
##  2 N504MQ           1137
##  3 N517MQ           1126
##  4 N338AA           1014
##  5 N665MQ           1005
##  6 N959DL            960
##  7 N927DA            911
##  8 N3762Y            899
##  9 N6716C            898
## 10 N5DMAA            896
## # ℹ 4,027 more rows
…
d) What does flights |> group_by(dest) |> filter(row_number()
< 4) do? What does flights |> group_by(dest) |>
filter(row_number(dep_delay) < 4) do?

?row_number

#flights |> group_by(dest) |> filter(row_number() < 4)
flights |>
  #group by "dest"
  group_by(dest) |>
  #filter for the first 3 elements per group
  filter(row_number() < 4) |>
  select(dest, everything()) |> arrange(dest)

## # A tibble: 311 × 19
## # Groups:   dest [105]
##    dest   year month   day dep_time sched_dep_time dep_delay arr_time
##    <chr> <int> <int> <int>    <int>          <int>     <dbl>    <int>
##  1 ABQ    2013    10     1     1955           2001        -6     2213
##  2 ABQ    2013    10     2     2010           2001         9     2230
##  3 ABQ    2013    10     3     1955           2001        -6     2232
##  4 ACK    2013    10     1     1149           1159       -10     1245
##  5 ACK    2013    10     2     1152           1159        -7     1259
##  6 ACK    2013    10     3     1211           1159        12     1316
##  7 ALB    2013     1     1     1315           1317        -2     1413
##  8 ALB    2013     1     1     1655           1621        34     1804
##  9 ALB    2013     1     1     2056           2004        52     2156
## 10 ANC    2013     7     6     1629           1615        14     1954
## # ℹ 301 more rows
## # ℹ 11 more variables: sched_arr_time <int>, arr_delay <dbl>, carrier <chr>,
## #   flight <int>, tailnum <chr>, origin <chr>, air_time <dbl>, distance <dbl>,
## #   hour <dbl>, minute <dbl>, time_hour <dttm>

#flights |> group_by(dest) |> filter(row_number(dep_delay) < 4)
flights |>
  #group by "dest"
  group_by(dest) |>
  #filter for the 3 smallest departure delays per group
  filter(row_number(dep_delay) < 4) |>
  select(dest, everything()) |> arrange(dest)

## # A tibble: 310 × 19
## # Groups:   dest [104]
##    dest   year month   day dep_time sched_dep_time dep_delay arr_time
##    <chr> <int> <int> <int>    <int>          <int>     <dbl>    <int>
##  1 ABQ    2013    11     1     1950           2000       -10     2226
##  2 ABQ    2013    11    20     1948           2000       -12     2236
##  3 ABQ    2013     9    10     1949           2001       -12     2225
##  4 ACK    2013    10     9     1147           1200       -13     1304
##  5 ACK    2013     8    27     1157           1209       -12     1301
##  6 ACK    2013     9    28     1146           1159       -13     1245
##  7 ALB    2013    12    13     1257           1310       -13     1405
##  8 ALB    2013     8    14      708            720       -12      804
##  9 ALB    2013     9    16     2145           2159       -14     2233
## 10 ANC    2013     7    27     1617           1615         2     1906
## # ℹ 300 more rows
## # ℹ 11 more variables: sched_arr_time <int>, arr_delay <dbl>, carrier <chr>,
## #   flight <int>, tailnum <chr>, origin <chr>, air_time <dbl>, distance <dbl>,
## #   hour <dbl>, minute <dbl>, time_hour <dttm>

e) For each destination, compute the total minutes of delay. For each
flight, compute the proportion of the total delay for its
destination.

#total minutes of delay for each destination
flights |>
  #filter out early departures
  filter(dep_delay > 0) |>
  #group by "dest"
  group_by(dest) |>
  #sum up delay time per group
  summarize(t_delay = sum(dep_delay, na.rm = TRUE))

## # A tibble: 103 × 2
##    dest  t_delay
##    <chr>   <dbl>
##  1 ABQ      4076
##  2 ACK      2603
##  3 ALB     10934
##  4 ANC       105
##  5 ATL    254414
##  6 AUS     36623
##  7 AVL      3092
##  8 BDL      8471
##  9 BGR      8170
## 10 BHM      8817
## # ℹ 93 more rows
…
flights |>
  #filter out early departures
  filter(dep_delay > 0) |>
  #group by "flight"
  group_by(dest, origin, carrier, flight) |>
  #sum up delay time per group
  summarize(t_delay = sum(dep_delay), .groups = "drop") |>
  #group by "dest"
  group_by(dest) |>
  #calculate proportion of delay per group
  mutate(p_delay = round(t_delay/sum(t_delay),3)) |>
  arrange(dest, desc(p_delay)) |>
  select(carrier, flight, origin, dest, p_delay)

## # A tibble: 9,315 × 5
## # Groups:   dest [103]
##    carrier flight origin dest  p_delay
##    <chr>    <int> <chr>  <chr>   <dbl>
##  1 B6        1505 JFK    ABQ     0.612
##  2 B6          65 JFK    ABQ     0.388
##  3 B6        1491 JFK    ACK     0.45 
##  4 B6        1191 JFK    ACK     0.433
##  5 B6        1291 JFK    ACK     0.101
##  6 B6        1195 JFK    ACK     0.016
##  7 EV        4309 EWR    ALB     0.162
##  8 EV        4271 EWR    ALB     0.127
##  9 EV        4117 EWR    ALB     0.098
## 10 EV        4088 EWR    ALB     0.09 
## # ℹ 9,305 more rows
…
## Warning: There was 1 warning in `mutate()`.
## ℹ In argument: `at_min = min(air_time, na.rm = TRUE)`.
## ℹ In group 41: `origin = "EWR"`, `dest = "LGA"`.
## Caused by warning in `min()`:
## ! no non-missing arguments to min; returning Inf

## # A tibble: 247 × 6
## # Groups:   origin, dest [223]
##    origin dest  tailnum air_time at_min at_rel
##    <chr>  <chr> <chr>      <dbl>  <dbl>  <dbl>
##  1 LGA    BOS   N967UW       107     21   5.10
##  2 LGA    DCA   N745VJ       131     32   4.09
##  3 JFK    ACK   N328JB       141     35   4.03
##  4 EWR    BOS   N37255       112     30   3.73
##  5 JFK    BOS   N3FKAA        96     26   3.69
##  6 JFK    PHL   N8932C        61     21   2.90
##  7 LGA    PHL   N755US        75     26   2.88
##  8 EWR    RIC   N13914       100     35   2.86
##  9 JFK    DCA   N813MQ        97     34   2.85
## 10 EWR    BDL   N13913        56     20   2.8 
## # ℹ 237 more rows
…
## `summarise()` has grouped output by 'dest', 'origin'. You can override using
## the `.groups` argument.

## # A tibble: 403 × 5
## # Groups:   dest, origin [189]
##    dest  origin carrier at_mean at_rnk
##    <chr> <chr>  <chr>     <dbl>  <int>
##  1 ATL   EWR    DL         111.      1
##  2 ATL   EWR    9E         111       2
##  3 ATL   EWR    UA         114.      3
##  4 ATL   EWR    EV         114.      4
##  5 ATL   JFK    DL         112.      1
##  6 ATL   JFK    EV         118       2
##  7 ATL   JFK    9E         121.      3
##  8 ATL   LGA    DL         113.      1
##  9 ATL   LGA    MQ         114.      2
## 10 ATL   LGA    FL         114.      3
## # ℹ 393 more rows
…
gss_cat |> count(denom)   #arbitrary

## # A tibble: 30 × 2
##    denom                    n
##    <fct>                <int>
##  1 No answer              117
##  2 Don't know              52
##  3 No denomination       1683
##  4 Other                 2534
##  5 Episcopal              397
##  6 Presbyterian-dk wh     244
##  7 Presbyterian, merged    67
##  8 Other presbyterian      47
##  9 United pres ch in us   110
## 10 Presbyterian c in us   104
## # ℹ 20 more rows
…
3.2. BOOLEAN ALGEBRA

a) Find all flights where arr_delay is missing but dep_delay is not.
Find all flights where neither arr_time nor sched_arr_time are missing,
but arr_delay is.

#arr_delay is missing but dep_delay is not
flights |>
  filter(is.na(arr_delay) & !is.na(dep_delay))

## # A tibble: 1,175 × 19
##     year month   day dep_time sched_dep_time dep_delay arr_time sched_arr_time
##    <int> <int> <int>    <int>          <int>     <dbl>    <int>          <int>
##  1  2013     1     1     1525           1530        -5     1934           1805
##  2  2013     1     1     1528           1459        29     2002           1647
##  3  2013     1     1     1740           1745        -5     2158           2020
##  4  2013     1     1     1807           1738        29     2251           2103
##  5  2013     1     1     1939           1840        59       29           2151
##  6  2013     1     1     1952           1930        22     2358           2207
##  7  2013     1     1     2016           1930        46       NA           2220
##  8  2013     1     2      905            822        43     1313           1045
##  9  2013     1     2     1125            925       120     1445           1146
## 10  2013     1     2     1848           1840         8     2333           2151
## # ℹ 1,165 more rows
## # ℹ 11 more variables: arr_delay <dbl>, carrier <chr>, flight <int>,
## #   tailnum <chr>, origin <chr>, dest <chr>, air_time <dbl>, distance <dbl>,
## #   hour <dbl>, minute <dbl>, time_hour <dttm>

#neither arr_time nor sched_arr_time are missing, but arr_delay is
flights |>
  filter(!is.na(arr_time) & !is.na(sched_arr_time) & is.na(arr_delay))

## # A tibble: 717 × 19
##     year month   day dep_time sched_dep_time dep_delay arr_time sched_arr_time
##    <int> <int> <int>    <int>          <int>     <dbl>    <int>          <int>
##  1  2013     1     1     1525           1530        -5     1934           1805
##  2  2013     1     1     1528           1459        29     2002           1647
##  3  2013     1     1     1740           1745        -5     2158           2020
##  4  2013     1     1     1807           1738        29     2251           2103
##  5  2013     1     1     1939           1840        59       29           2151
##  6  2013     1     1     1952           1930        22     2358           2207
##  7  2013     1     2      905            822        43     1313           1045
##  8  2013     1     2     1125            925       120     1445           1146
##  9  2013     1     2     1848           1840         8     2333           2151
## 10  2013     1     2     1849           1724        85     2235           1938
## # ℹ 707 more rows
## # ℹ 11 more variables: arr_delay <dbl>, carrier <chr>, flight <int>,
## #   tailnum <chr>, origin <chr>, dest <chr>, air_time <dbl>, distance <dbl>,
## #   hour <dbl>, minute <dbl>, time_hour <dttm>
…
