1.transform
…
time_hour
0
1
2013-01-01 05:00:00
2013-12-31 23:00:00
2013-07-03 10:00:00
6936

1.1. COUNTS

#simple count
flights |> count(dest)

## # A tibble: 105 × 2
##    dest      n
##    <chr> <int>
##  1 ABQ     254
##  2 ACK     265
##  3 ALB     439
##  4 ANC       8
##  5 ATL   17215
##  6 AUS    2439
##  7 AVL     275
##  8 BDL     443
##  9 BGR     375
## 10 BHM     297
## # ℹ 95 more rows

#sorted count
flights |> count(dest, sort = TRUE)

## # A tibble: 105 × 2
##    dest      n
##    <chr> <int>
##  1 ORD   17283
##  2 ATL   17215
##  3 LAX   16174
##  4 BOS   15508
##  5 MCO   14082
##  6 CLT   14064
##  7 SFO   13331
##  8 FLL   12055
##  9 MIA   11728
## 10 DCA    9705
## # ℹ 95 more rows

#count + summary statistics
flights |> 
  group_by(dest) |> 
  summarize(
    n = n(),
    delay = mean(arr_delay, na.rm = TRUE)
  )

## # A tibble: 105 × 3
##    dest      n delay
##    <chr> <int> <dbl>
##  1 ABQ     254  4.38
##  2 ACK     265  4.85
##  3 ALB     439 14.4 
##  4 ANC       8 -2.5 
##  5 ATL   17215 11.3 
##  6 AUS    2439  6.02
##  7 AVL     275  8.00
##  8 BDL     443  7.05
##  9 BGR     375  8.03
## 10 BHM     297 16.9 
## # ℹ 95 more rows

#count distinct
flights |> 
  group_by(dest) |> 
  summarize(carriers = n_distinct(carrier)) |> 
  arrange(desc(carriers))

## # A tibble: 105 × 2
##    dest  carriers
##    <chr>    <int>
##  1 ATL          7
##  2 BOS          7
##  3 CLT          7
##  4 ORD          7
##  5 TPA          7
##  6 AUS          6
##  7 DCA          6
##  8 DTW          6
##  9 IAD          6
## 10 MSP          6
## # ℹ 95 more rows

#sum is weighted count
flights |> count(tailnum, wt = distance)

## # A tibble: 4,044 × 2
##    tailnum      n
##    <chr>    <dbl>
##  1 D942DN    3418
##  2 N0EGMQ  250866
##  3 N10156  115966
##  4 N102UW   25722
##  5 N103US   24619
##  6 N104UW   25157
##  7 N10575  150194
##  8 N105UW   23618
##  9 N107US   21677
## 10 N108UW   32070
## # ℹ 4,034 more rows

flights |> 
  group_by(tailnum) |> 
  summarize(miles = sum(distance))  

## # A tibble: 4,044 × 2
##    tailnum  miles
##    <chr>    <dbl>
##  1 D942DN    3418
##  2 N0EGMQ  250866
##  3 N10156  115966
##  4 N102UW   25722
##  5 N103US   24619
##  6 N104UW   25157
##  7 N10575  150194
##  8 N105UW   23618
##  9 N107US   21677
## 10 N108UW   32070
## # ℹ 4,034 more rows

#count missing values
flights |> 
  group_by(dest) |> 
  summarize(n_cancelled = sum(is.na(dep_time))) 

## # A tibble: 105 × 2
##    dest  n_cancelled
##    <chr>       <int>
##  1 ABQ             0
##  2 ACK             0
##  3 ALB            20
##  4 ANC             0
##  5 ATL           317
##  6 AUS            21
##  7 AVL            12
##  8 BDL            31
##  9 BGR            15
## 10 BHM            25
## # ℹ 95 more rows
…
##  [1] 0 0 1 1 1 2 2 2 3 3

1:10 %% 3

##  [1] 1 2 0 1 2 0 1 2 0 1

flights |> 
  mutate(
    hour = sched_dep_time %/% 100,
    minute = sched_dep_time %% 100,
    .keep = "used"
  )

## # A tibble: 336,776 × 3
##    sched_dep_time  hour minute
##             <int> <dbl>  <dbl>
##  1            515     5     15
##  2            529     5     29
##  3            540     5     40
##  4            545     5     45
##  5            600     6      0
##  6            558     5     58
##  7            600     6      0
##  8            600     6      0
##  9            600     6      0
## 10            600     6      0
## # ℹ 336,766 more rows
…
#use fct()
y2 <- fct(x2, levels = month_levels)

## Error in `fct()`:
## ! All values of `x` must appear in `levels` or `na`
## ℹ Missing level: "Jam"

2.2. DATASET gss_cat

#General Social Survey
gss_cat

## # A tibble: 21,483 × 9
##     year marital         age race  rincome        partyid    relig denom tvhours
##    <int> <fct>         <int> <fct> <fct>          <fct>      <fct> <fct>   <int>
##  1  2000 Never married    26 White $8000 to 9999  Ind,near … Prot… Sout…      12
##  2  2000 Divorced         48 White $8000 to 9999  Not str r… Prot… Bapt…      NA
##  3  2000 Widowed          67 White Not applicable Independe… Prot… No d…       2
##  4  2000 Never married    39 White Not applicable Ind,near … Orth… Not …       4
##  5  2000 Divorced         25 White Not applicable Not str d… None  Not …       1
##  6  2000 Married          25 White $20000 - 24999 Strong de… Prot… Sout…      NA
##  7  2000 Never married    36 White $25000 or more Not str r… Chri… Not …       3
##  8  2000 Divorced         44 White $7000 to 7999  Ind,near … Prot… Luth…      NA
##  9  2000 Married          44 White $25000 or more Not str d… Prot… Other       0
## 10  2000 Married          47 White $25000 or more Strong re… Prot… Sout…       3
## # ℹ 21,473 more rows
…
  mutate(
    partyid = fct_recode(partyid,
      "Republican, strong"    = "Strong republican",
      "Republican, weak"      = "Not str republican",
      "Independent, near rep" = "Ind,near rep",
      "Independent, near dem" = "Ind,near dem",
      "Democrat, weak"        = "Not str democrat",
      "Democrat, strong"      = "Strong democrat",
      "Other"                 = "No answer",
      "Other"                 = "Don't know",
      "Other"                 = "Other party"
    )
  )

## # A tibble: 21,483 × 9
##     year marital         age race  rincome        partyid    relig denom tvhours
##    <int> <fct>         <int> <fct> <fct>          <fct>      <fct> <fct>   <int>
##  1  2000 Never married    26 White $8000 to 9999  Independe… Prot… Sout…      12
##  2  2000 Divorced         48 White $8000 to 9999  Republica… Prot… Bapt…      NA
##  3  2000 Widowed          67 White Not applicable Independe… Prot… No d…       2
##  4  2000 Never married    39 White Not applicable Independe… Orth… Not …       4
##  5  2000 Divorced         25 White Not applicable Democrat,… None  Not …       1
##  6  2000 Married          25 White $20000 - 24999 Democrat,… Prot… Sout…      NA
##  7  2000 Never married    36 White $25000 or more Republica… Chri… Not …       3
##  8  2000 Divorced         44 White $7000 to 7999  Independe… Prot… Luth…      NA
##  9  2000 Married          44 White $25000 or more Democrat,… Prot… Other       0
## 10  2000 Married          47 White $25000 or more Republica… Prot… Sout…       3
## # ℹ 21,473 more rows
…
3. LOGICAL VECTORS

[from https://r4ds.hadley.nz/logicals.html]

library("nycflights13") #collection of datasets
library("tidyverse")    #collection of packages for data analysis

3.1. COMPARISONS

#create logical vector inline
flights |> 
  filter(dep_time > 600 & dep_time < 2000 & abs(arr_delay) < 20)

## # A tibble: 172,286 × 19
##     year month   day dep_time sched_dep_time dep_delay arr_time sched_arr_time
##    <int> <int> <int>    <int>          <int>     <dbl>    <int>          <int>
##  1  2013     1     1      601            600         1      844            850
##  2  2013     1     1      602            610        -8      812            820
##  3  2013     1     1      602            605        -3      821            805
##  4  2013     1     1      606            610        -4      858            910
##  5  2013     1     1      606            610        -4      837            845
##  6  2013     1     1      607            607         0      858            915
##  7  2013     1     1      611            600        11      945            931
##  8  2013     1     1      613            610         3      925            921
##  9  2013     1     1      615            615         0      833            842
## 10  2013     1     1      622            630        -8     1017           1014
## # ℹ 172,276 more rows
## # ℹ 11 more variables: arr_delay <dbl>, carrier <chr>, flight <int>,
## #   tailnum <chr>, origin <chr>, dest <chr>, air_time <dbl>, distance <dbl>,
## #   hour <dbl>, minute <dbl>, time_hour <dttm>

#create logical vector outside logical condition
flights |> 
  mutate(
    daytime = dep_time > 600 & dep_time < 2000,
    approx_ontime = abs(arr_delay) < 20,
  ) |> 
  filter(daytime & approx_ontime)  

## # A tibble: 172,286 × 21
##     year month   day dep_time sched_dep_time dep_delay arr_time sched_arr_time
##    <int> <int> <int>    <int>          <int>     <dbl>    <int>          <int>
##  1  2013     1     1      601            600         1      844            850
##  2  2013     1     1      602            610        -8      812            820
##  3  2013     1     1      602            605        -3      821            805
##  4  2013     1     1      606            610        -4      858            910
##  5  2013     1     1      606            610        -4      837            845
##  6  2013     1     1      607            607         0      858            915
##  7  2013     1     1      611            600        11      945            931
##  8  2013     1     1      613            610         3      925            921
##  9  2013     1     1      615            615         0      833            842
## 10  2013     1     1      622            630        -8     1017           1014
## # ℹ 172,276 more rows
## # ℹ 13 more variables: arr_delay <dbl>, carrier <chr>, flight <int>,
## #   tailnum <chr>, origin <chr>, dest <chr>, air_time <dbl>, distance <dbl>,
## #   hour <dbl>, minute <dbl>, time_hour <dttm>, daytime <lgl>,
## #   approx_ontime <lgl>
…
flights |> 
  filter(dep_time == NA)

## # A tibble: 0 × 19
## # ℹ 19 variables: year <int>, month <int>, day <int>, dep_time <int>,
## #   sched_dep_time <int>, dep_delay <dbl>, arr_time <int>,
## #   sched_arr_time <int>, arr_delay <dbl>, carrier <chr>, flight <int>,
## #   tailnum <chr>, origin <chr>, dest <chr>, air_time <dbl>, distance <dbl>,
## #   hour <dbl>, minute <dbl>, time_hour <dttm>

#is.na()
flights |> 
  filter(is.na(dep_time))

## # A tibble: 8,255 × 19
##     year month   day dep_time sched_dep_time dep_delay arr_time sched_arr_time
##    <int> <int> <int>    <int>          <int>     <dbl>    <int>          <int>
##  1  2013     1     1       NA           1630        NA       NA           1815
##  2  2013     1     1       NA           1935        NA       NA           2240
##  3  2013     1     1       NA           1500        NA       NA           1825
##  4  2013     1     1       NA            600        NA       NA            901
##  5  2013     1     2       NA           1540        NA       NA           1747
##  6  2013     1     2       NA           1620        NA       NA           1746
##  7  2013     1     2       NA           1355        NA       NA           1459
##  8  2013     1     2       NA           1420        NA       NA           1644
##  9  2013     1     2       NA           1321        NA       NA           1536
## 10  2013     1     2       NA           1545        NA       NA           1910
## # ℹ 8,245 more rows
## # ℹ 11 more variables: arr_delay <dbl>, carrier <chr>, flight <int>,
## #   tailnum <chr>, origin <chr>, dest <chr>, air_time <dbl>, distance <dbl>,
## #   hour <dbl>, minute <dbl>, time_hour <dttm>
…
## # A tibble: 3 × 4
##   x     `NA`  x_and_NA x_or_NA
##   <lgl> <lgl> <lgl>    <lgl>  
## 1 TRUE  NA    NA       TRUE   
## 2 FALSE NA    FALSE    NA     
## 3 NA    NA    NA       NA

Operator %in%

flights |> 
  filter(month == 11 | month == 12)

## # A tibble: 55,403 × 19
##     year month   day dep_time sched_dep_time dep_delay arr_time sched_arr_time
##    <int> <int> <int>    <int>          <int>     <dbl>    <int>          <int>
##  1  2013    11     1        5           2359         6      352            345
##  2  2013    11     1       35           2250       105      123           2356
##  3  2013    11     1      455            500        -5      641            651
##  4  2013    11     1      539            545        -6      856            827
##  5  2013    11     1      542            545        -3      831            855
##  6  2013    11     1      549            600       -11      912            923
##  7  2013    11     1      550            600       -10      705            659
##  8  2013    11     1      554            600        -6      659            701
##  9  2013    11     1      554            600        -6      826            827
## 10  2013    11     1      554            600        -6      749            751
## # ℹ 55,393 more rows
## # ℹ 11 more variables: arr_delay <dbl>, carrier <chr>, flight <int>,
## #   tailnum <chr>, origin <chr>, dest <chr>, air_time <dbl>, distance <dbl>,
## #   hour <dbl>, minute <dbl>, time_hour <dttm>

flights |> 
  filter(month %in% c(11, 12))

## # A tibble: 55,403 × 19
##     year month   day dep_time sched_dep_time dep_delay arr_time sched_arr_time
##    <int> <int> <int>    <int>          <int>     <dbl>    <int>          <int>
##  1  2013    11     1        5           2359         6      352            345
##  2  2013    11     1       35           2250       105      123           2356
##  3  2013    11     1      455            500        -5      641            651
##  4  2013    11     1      539            545        -6      856            827
##  5  2013    11     1      542            545        -3      831            855
##  6  2013    11     1      549            600       -11      912            923
##  7  2013    11     1      550            600       -10      705            659
##  8  2013    11     1      554            600        -6      659            701
##  9  2013    11     1      554            600        -6      826            827
## 10  2013    11     1      554            600        -6      749            751
## # ℹ 55,393 more rows
## # ℹ 11 more variables: arr_delay <dbl>, carrier <chr>, flight <int>,
## #   tailnum <chr>, origin <chr>, dest <chr>, air_time <dbl>, distance <dbl>,
## #   hour <dbl>, minute <dbl>, time_hour <dttm>
…
## [1]  TRUE FALSE FALSE

3.3. SUMMARIES

Logical summaries

flights |> 
  group_by(year, month, day) |> 
  summarize(
    all_delayed = all(dep_delay <= 60, na.rm = TRUE),
    any_long_delay = any(arr_delay >= 300, na.rm = TRUE),
    .groups = "drop"
  )

## # A tibble: 365 × 5
##     year month   day all_delayed any_long_delay
##    <int> <int> <int> <lgl>       <lgl>         
##  1  2013     1     1 FALSE       TRUE          
##  2  2013     1     2 FALSE       TRUE          
##  3  2013     1     3 FALSE       FALSE         
##  4  2013     1     4 FALSE       FALSE         
##  5  2013     1     5 FALSE       TRUE          
##  6  2013     1     6 FALSE       FALSE         
##  7  2013     1     7 FALSE       TRUE          
##  8  2013     1     8 FALSE       FALSE         
##  9  2013     1     9 FALSE       TRUE          
## 10  2013     1    10 FALSE       TRUE          
## # ℹ 355 more rows

Numeric summaries of logical vectors

flights |> 
  group_by(year, month, day) |> 
  summarize(
    proportion_delayed = mean(dep_delay <= 60, na.rm = TRUE),
    count_long_delay = sum(arr_delay >= 300, na.rm = TRUE),
    .groups = "drop"
  )

## # A tibble: 365 × 5
##     year month   day proportion_delayed count_long_delay
##    <int> <int> <int>              <dbl>            <int>
##  1  2013     1     1              0.939                3
##  2  2013     1     2              0.914                3
##  3  2013     1     3              0.941                0
##  4  2013     1     4              0.953                0
##  5  2013     1     5              0.964                1
##  6  2013     1     6              0.959                0
##  7  2013     1     7              0.956                1
##  8  2013     1     8              0.975                0
##  9  2013     1     9              0.986                1
## 10  2013     1    10              0.977                2
## # ℹ 355 more rows

Logical subsetting

flights |> 
  filter(arr_delay > 0) |> 
  group_by(year, month, day) |> 
  summarize(
    behind = mean(arr_delay),
    n = n(),
    .groups = "drop"
  )

## # A tibble: 365 × 5
##     year month   day behind     n
##    <int> <int> <int>  <dbl> <int>
##  1  2013     1     1   32.5   461
##  2  2013     1     2   32.0   535
##  3  2013     1     3   27.7   460
##  4  2013     1     4   28.3   297
##  5  2013     1     5   22.6   238
##  6  2013     1     6   24.4   381
##  7  2013     1     7   27.8   243
##  8  2013     1     8   20.8   275
##  9  2013     1     9   25.6   287
## 10  2013     1    10   27.3   220
## # ℹ 355 more rows

flights |> 
  filter(arr_delay < 0) |> 
  group_by(year, month, day) |> 
  summarize(
    behind = mean(arr_delay),
    n = n(),
    .groups = "drop"
  )

## # A tibble: 365 × 5
##     year month   day behind     n
##    <int> <int> <int>  <dbl> <int>
##  1  2013     1     1  -12.5   357
##  2  2013     1     2  -14.3   374
##  3  2013     1     3  -18.2   415
##  4  2013     1     4  -17.0   598
##  5  2013     1     5  -14.0   461
##  6  2013     1     6  -13.6   424
##  7  2013     1     7  -17.0   669
##  8  2013     1     8  -14.3   600
##  9  2013     1     9  -13.0   583
## 10  2013     1    10  -16.4   699
## # ℹ 355 more rows

flights |> 
  group_by(year, month, day) |> 
  summarize(
    behind = mean(arr_delay[arr_delay > 0], na.rm = TRUE),
    ahead = mean(arr_delay[arr_delay < 0], na.rm = TRUE),
    n = n(),
    .groups = "drop"
  )

## # A tibble: 365 × 6
##     year month   day behind ahead     n
##    <int> <int> <int>  <dbl> <dbl> <int>
##  1  2013     1     1   32.5 -12.5   842
##  2  2013     1     2   32.0 -14.3   943
##  3  2013     1     3   27.7 -18.2   914
##  4  2013     1     4   28.3 -17.0   915
##  5  2013     1     5   22.6 -14.0   720
##  6  2013     1     6   24.4 -13.6   832
##  7  2013     1     7   27.8 -17.0   933
##  8  2013     1     8   20.8 -14.3   899
##  9  2013     1     9   25.6 -13.0   902
## 10  2013     1    10   27.3 -16.4   932
## # ℹ 355 more rows
…
flights |> 
  mutate(
    status = case_when(
      is.na(arr_delay)      ~ "cancelled",
      arr_delay < -30       ~ "very early",
      arr_delay < -15       ~ "early",
      abs(arr_delay) <= 15  ~ "on time",
      arr_delay < 60        ~ "late",
      arr_delay < Inf       ~ "very late",
    ),
    .keep = "used"
  )

## # A tibble: 336,776 × 2
##    arr_delay status 
##        <dbl> <chr>  
##  1        11 on time
##  2        20 late   
##  3        33 late   
##  4       -18 early  
##  5       -25 early  
##  6        12 on time
##  7        19 late   
##  8       -14 on time
##  9        -8 on time
## 10         8 on time
## # ℹ 336,766 more rows
…
