2.exploration (exercises)
…
    #location
    min = min(v),
    max = max(v),
    Q25 = quantile(v, prob = 0.25),
    Q75 = quantile(v, prob = 0.75),
    #spread
    sd = sd(v),
    mad = mad(v, constant = 1/qnorm(3/4)),
    iqr = IQR(v)/(qnorm(3/4) - qnorm(1/4)),
    .groups = "drop"
  ) |>
  filter(n > 5) |>                          #filter for groups with obs > 5
  arrange(dest)                             #order by "dest"

## # A tibble: 213 × 12
##    dest  origin     n  mean median   min   max   Q25   Q75    sd   mad   iqr
##    <chr> <chr>  <int> <dbl>  <dbl> <dbl> <dbl> <dbl> <dbl> <dbl> <dbl> <dbl>
##  1 ABQ   JFK      115  35.4   24       1   142  11.5  51.5  34.5 23.7  29.7 
##  2 ACK   JFK       82  31.7   18.5     1   219   9    41.8  36.1 21.5  24.3 
##  3 ALB   EWR      210  52.1   34       1   323  13    72.5  55.5 37.1  44.1 
##  4 ANC   EWR        6  17.5    5.5     2    75   3    12.5  28.5  4.45  7.04
##  5 ATL   EWR     1808  48.3   24       1   798   8    64    68.3 29.7  41.5 
##  6 ATL   JFK      762  31.0   13       1   599   5    33    52.7 14.8  20.8 
##  7 ATL   LGA     3511  40.9   18       1   898   6    50    62.1 22.2  32.6 
##  8 AUS   EWR      421  30.7   15       1   351   6    37    44.1 17.8  23.0 
##  9 AUS   JFK      616  38.5   19       1   334   6    51    49.6 23.7  33.4 
## 10 AVL   EWR       83  36.9   25       1   222   8    53.5  40.5 29.7  33.7 
## # ℹ 203 more rows

b) Which destination shows the greatest variation in air speed?

flights |>
  #group by "dest"
  group_by(dest) |>
  summarize(
    #calculate variation of air time per group
    var = var(air_time, na.rm = TRUE),
    #calculate number of non-NA observations per group
    n = sum(!is.na(air_time))
  ) |> 
  arrange(desc(var))

## # A tibble: 105 × 3
##    dest    var     n
##    <chr> <dbl> <int>
##  1 HNL    470.   701
##  2 SNA    396.   812
##  3 OKC    373.   315
##  4 ABQ    372.   254
##  5 SAN    368.  2709
##  6 BUR    348.   370
##  7 PHX    345.  4606
##  8 LAX    335. 16026
##  9 AUS    332.  2411
## 10 LGB    332.   661
## # ℹ 95 more rows
…
3.2. IMPLICIT MISSING VALUES

a) Can you find any relationship between the carrier and the rows
that appear to be missing from planes?

#check planes missing from database "planes"
flights |> 
  distinct(tailnum) |>
  anti_join(planes)

## Joining with `by = join_by(tailnum)`

## # A tibble: 722 × 1
##    tailnum
##    <chr>  
##  1 N3ALAA 
##  2 N3DUAA 
##  3 N542MQ 
##  4 N730MQ 
##  5 N9EAMQ 
##  6 N532UA 
##  7 N3EMAA 
##  8 N518MQ 
##  9 N3BAAA 
## 10 N3CYAA 
## # ℹ 712 more rows
…
