2.exploration
…
Minimum, maximum and quantiles

flights |>
  group_by(year, month, day) |>
  summarize(
    q95 = quantile(air_time, 0.95, na.rm = TRUE),
    max = max(air_time, na.rm = TRUE),
    .groups = "drop"
  )

## # A tibble: 365 × 5
##     year month   day   q95   max
##    <int> <int> <int> <dbl> <dbl>
##  1  2013     1     1  356    659
##  2  2013     1     2  340    638
##  3  2013     1     3  324    628
##  4  2013     1     4  328    639
##  5  2013     1     5  347    635
##  6  2013     1     6  344    611
##  7  2013     1     7  333.   620
##  8  2013     1     8  345    645
##  9  2013     1     9  358    667
## 10  2013     1    10  350    633
## # ℹ 355 more rows
…
flights |> 
  group_by(origin, dest) |> 
  summarize(
    #sd = sqrt(sum(X - mean(X)^2)/(n - 1))
    sd = sd(air_time, na.rm=TRUE),
    #mad = median(abs(X - median(X)))* 1/qnorm(3/4)
    mad = mad(air_time, constant = 1/qnorm(3/4),na.rm=TRUE),
    #iqr = (quantile(X, 3/4) - quantile(X, 1/4))*1/(qnorm(3/4) - qnorm(1/4))
    iqr = IQR(air_time, na.rm=TRUE)/(qnorm(3/4) - qnorm(1/4)), 
    n = n(),
    .groups = "drop"
  )

## # A tibble: 224 × 6
##    origin dest     sd   mad   iqr     n
##    <chr>  <chr> <dbl> <dbl> <dbl> <int>
##  1 EWR    ALB    3.08  2.97  2.22   439
##  2 EWR    ANC   14.7  15.6  12.2      8
##  3 EWR    ATL    9.99 10.4   9.64  5022
##  4 EWR    AUS   17.9  17.8  18.5    968
##  5 EWR    AVL    7.45  7.41  7.04   265
##  6 EWR    BDL    3.29  2.97  2.97   443
##  7 EWR    BNA   10.9  10.4  11.1   2336
##  8 EWR    BOS    4.92  4.45  4.45  5327
##  9 EWR    BQN    8.88  7.41  7.41   297
## 10 EWR    BTV    3.67  2.97  2.97   931
## # ℹ 214 more rows

Positions

flights |> 
  group_by(year, month, day) |> 
  mutate(r = row_number(sched_dep_time)) |> 
  filter(r %in% c(1, max(r)))  

## # A tibble: 730 × 20
## # Groups:   year, month, day [365]
##     year month   day dep_time sched_dep_time dep_delay arr_time sched_arr_time
##    <int> <int> <int>    <int>          <int>     <dbl>    <int>          <int>
##  1  2013     1     1      517            515         2      830            819
##  2  2013     1     1     2356           2359        -3      425            437
##  3  2013     1     2      458            500        -2      703            650
##  4  2013     1     2     2354           2359        -5      413            437
##  5  2013     1     3      458            500        -2      650            650
##  6  2013     1     3     2349           2359       -10      434            445
##  7  2013     1     4      456            500        -4      631            650
##  8  2013     1     4     2358           2359        -1      436            445
##  9  2013     1     5      458            500        -2      640            650
## 10  2013     1     5     2357           2359        -2      432            437
## # ℹ 720 more rows
## # ℹ 12 more variables: arr_delay <dbl>, carrier <chr>, flight <int>,
## #   tailnum <chr>, origin <chr>, dest <chr>, air_time <dbl>, distance <dbl>,
## #   hour <dbl>, minute <dbl>, time_hour <dttm>, r <int>
…
2.2. UNUSUAL VALUES

#look at the data "price", "x", "y" and "z"
diamonds |> 
  filter(between(y, 3, 20)) |>         #filter out unusual values
  select(price, x, y, z) |>
  arrange(y)

## # A tibble: 53,931 × 4
##    price     x     y     z
##    <int> <dbl> <dbl> <dbl>
##  1   367  3.73  3.68  2.31
##  2   367  3.73  3.71  2.33
##  3   367  3.74  3.71  2.36
##  4   367  3.77  3.72  2.31
##  5   367  3.76  3.73  2.33
##  6   345  3.79  3.75  2.27
##  7   367  3.79  3.77  2.26
##  8   367  3.81  3.77  2.33
##  9   337  3.87  3.78  2.49
## 10   367  3.81  3.78  2.24
## # ℹ 53,921 more rows
…
#obtain planes not in database "planes"
flights |> 
  distinct(tailnum) |>                 #calculate the distinct "dest"
  anti_join(planes)                    #obtain absent "dest"

## Joining with `by = join_by(tailnum)`

## # A tibble: 722 × 1
##    tailnum
##    <chr>  
##  1 N3ALAA 
##  2 N3DUAA 
##  3 N542MQ 
##  4 N730MQ 
##  5 N9EAMQ 
##  6 N532UA 
##  7 N3EMAA 
##  8 N518MQ 
##  9 N3BAAA 
## 10 N3CYAA 
## # ℹ 712 more rows
…
