3.modelling
…
glance(lm_fit)

## # A tibble: 1 × 12
##   r.squared adj.r.squared sigma statistic p.value    df logLik   AIC   BIC
##       <dbl>         <dbl> <dbl>     <dbl>   <dbl> <dbl>  <dbl> <dbl> <dbl>
## 1     0.943         0.943 0.243     3279.       0     5 0.0720  13.9  48.2
## # ℹ 3 more variables: deviance <dbl>, df.residual <int>, nobs <int>

#predict using same data used for the fitting
diamonds_data_aug <- augment(lm_fit, new_data = diamonds_data)
diamonds_data_aug

## # A tibble: 1,000 × 7
##    .pred   .resid carat cut       price log_price log_carat
##    <dbl>    <dbl> <dbl> <fct>     <int>     <dbl>     <dbl>
##  1  7.99 -0.204    0.73 Ideal      2397      7.78   -0.315 
##  2  7.91  0.187    0.7  Ideal      3300      8.10   -0.357 
##  3  6.52  0.0506   0.31 Ideal       713      6.57   -1.17  
##  4  6.52  0.0422   0.31 Ideal       707      6.56   -1.17  
##  5  6.52  0.376    0.31 Ideal       987      6.89   -1.17  
##  6  8.10 -0.0172   0.83 Good       3250      8.09   -0.186 
##  7  7.29  0.131    0.51 Very Good  1668      7.42   -0.673 
##  8  7.81 -0.332    0.7  Good       1771      7.48   -0.357 
##  9  6.96  0.00381  0.4  Ideal      1053      6.96   -0.916 
## 10  8.61 -0.163    1.1  Very Good  4640      8.44    0.0953
## # ℹ 990 more rows
…
2.6. FIT A MODEL

#fit the model using training data
t1 <- Sys.time()
glm_fit <- 
  flights_wflow |> 
  fit(data = train_data)
Sys.time() - t1

## Time difference of 1.329125 mins

#analyse model (classic regression table)
tidy(glm_fit)

## # A tibble: 158 × 5
##    term                         estimate std.error statistic  p.value
##    <chr>                           <dbl>     <dbl>     <dbl>    <dbl>
##  1 (Intercept)                   4.72    2.71           1.74 8.12e- 2
##  2 dep_time                     -0.00166 0.0000141   -118.   0       
##  3 air_time                     -0.0440  0.000560     -78.5  0       
##  4 distance                      0.00628 0.00149        4.21 2.58e- 5
##  5 date_USChristmasDay           1.20    0.168          7.14 9.04e-13
##  6 date_USColumbusDay            0.844   0.184          4.60 4.28e- 6
##  7 date_USCPulaskisBirthday      0.996   0.150          6.65 2.84e-11
##  8 date_USDecorationMemorialDay  0.570   0.120          4.76 1.91e- 6
##  9 date_USElectionDay            0.792   0.178          4.46 8.22e- 6
## 10 date_USGoodFriday             1.19    0.161          7.39 1.44e-13
## # ℹ 148 more rows
…
## # A tibble: 1 × 8
##   null.deviance df.null  logLik     AIC     BIC deviance df.residual   nobs
##           <dbl>   <int>   <dbl>   <dbl>   <dbl>    <dbl>       <int>  <int>
## 1       216943.  245508 -92116. 184548. 186193.  184232.      245351 245509

2.7. EVALUATE MODEL

#calculate predictions using testing data
flights_aug <- 
  augment(glm_fit, new_data = test_data)
flights_aug |>
  select(arr_delay, time_hour, flight, .pred_class, .pred_on_time) |>
  print(n = 20)

## # A tibble: 81,837 × 5
##    arr_delay time_hour           flight .pred_class .pred_on_time
##    <fct>     <dttm>               <int> <fct>               <dbl>
##  1 on_time   2013-01-01 05:00:00   1545 on_time             0.954
##  2 on_time   2013-01-01 05:00:00   1714 on_time             0.956
##  3 on_time   2013-01-01 06:00:00   5708 on_time             0.965
##  4 on_time   2013-01-01 06:00:00     79 on_time             0.980
##  5 on_time   2013-01-01 06:00:00    194 on_time             0.979
##  6 on_time   2013-01-01 06:00:00   1124 on_time             0.968
##  7 on_time   2013-01-01 05:00:00   1806 on_time             0.983
##  8 on_time   2013-01-01 06:00:00   1187 on_time             0.942
##  9 on_time   2013-01-01 06:00:00    371 on_time             0.976
## 10 on_time   2013-01-01 06:00:00   4650 on_time             0.941
## 11 on_time   2013-01-01 06:00:00   1919 on_time             0.972
## 12 on_time   2013-01-01 06:00:00   1665 on_time             0.929
## 13 on_time   2013-01-01 06:00:00    303 on_time             0.953
## 14 on_time   2013-01-01 06:00:00   4646 on_time             0.980
## 15 on_time   2013-01-01 06:00:00    389 on_time             0.971
## 16 on_time   2013-01-01 06:00:00    117 on_time             0.953
## 17 on_time   2013-01-01 07:00:00   1383 on_time             0.981
## 18 on_time   2013-01-01 07:00:00   1879 on_time             0.974
## 19 on_time   2013-01-01 07:00:00   1547 on_time             0.973
## 20 on_time   2013-01-01 07:00:00    987 on_time             0.964
## # ℹ 81,817 more rows
…
